{
   "Sierra"  : { 
      "itsThreatLevel" : null,     
      "itsCoordinate"  : { "x" : 34, "y" : 67   } 
   },

   "Tango"   : { 
      "itsThreatLevel" : "Medium", 
      "itsCoordinate"  : { "x" : 32, "y" : 89,  "z" : 100 }, 
      "itsColor"       : "Grey" },

   "Foxtrot" : { 
      "itsThreatLevel" : "High",   
      "itsCoordinate"  : { "x" : 10, "y" : 67.5 },      
      "itsColor"       : "Red" 
   }
}
